^C:\USERS\MIGUEL\SOURCE\REPOS\GDSTRUC SW3\GDSTRUC SW3\SOURCE.CPP
C:\USERS\MIGUEL\SOURCE\REPOS\GDSTRUC SW3\GDSTRUC SW3\DEBUG\VC141.PDB
C:\USERS\MIGUEL\SOURCE\REPOS\GDSTRUC SW3\GDSTRUC SW3\DEBUG\VC141.IDB
C:\USERS\MIGUEL\SOURCE\REPOS\GDSTRUC SW3\GDSTRUC SW3\DEBUG\SOURCE.OBJ
